{
    "_strings": {
        "empty": "Toto pole je třeba vyplnit",
        "format": "Toto pole má nesprávný formát"
    },
    "contact": {
        "title": "Kontaktní údaje",
        "type": "regular",
        "fields": {          
            "email": {
                "title": "E-mail",
                "type": "email",
                "datatype": "email",
                "required": "true",
                "class": "",
                "autocomplete": "email",
                "placeholder": "jan.novak@email.cz",
                "entity_map": "Cart->Email"
            },
            "phone": {
                "title": "Telefon",
                "type": "tel",
                "class": "",
                "datatype": "string",
                "required": "true",
                "format": {
                    "type": "regex",
                    "data": "^(\\+(420|421))?\\s?(\\d{3}\\s?)(\\d{3}\\s?)(\\d{3})$"
                },
                "errors": {
                    "format": "Nesprávný formát telefonního čísla (+420777xxxxxx, 777 xxx xxx atd.)"  
                },
                "autocomplete": "tel",
                "placeholder": "+420 606 303 212",
                "entity_map": "Cart->Phone"
            },
            "name": {
                "title": "Jméno",
                "type": "text",
                "datatype": "string",
                "required": "true",
                "class": "",
                "autocomplete": "given-name",
                "placeholder": "Jan",
                "entity_map": "Cart->Name"
            },
            "surname": {
                "title": "Přijmení",
                "type": "text",
                "datatype": "string",
                "required": "true",
                "class": "",
                "autocomplete": "family-name",
                "placeholder": "Novák",
                "entity_map": "Cart->Surname"
            },
            "permission": {
                "title": "Souhlasím se zasíláním marketingových materiálů od společnosti MH Lemonáda s.r.o. na uvedený e-mail.",
                "type": "checkbox",
                "datatype": "string",
                "required": "false",
                "class": "",
                "entity_map": "UserEmailPermission->Permission"
            }
        }
    },
    "invoice": {
        "title": "Fakturační údaje",
        "type": "regular",
        "fields": {
            "street": {
                "title": "Ulice a č.p.",
                "type": "text",
                "class": "",
                "autocomplete": "billing street-address",
                "placeholder": "Ulice 526 / 3",
                "datatype": "string",
                "required": "true",
                "entity_map": "Cart->InvoiceAddress->Street"
            },
            "city": {
                "title": "Obec",
                "type": "text",
                "class": "col-md-12",
                "autocomplete": "billing address-level2",
                "placeholder": "Praha",
                "datatype": "string",
                "required": "true",
                "entity_map": "Cart->InvoiceAddress->City"
            },
            "zipcode": {
                "title": "PSČ",
                "type": "text",
                "class": " col-md-12",
                "autocomplete": "billing postal-code",
                "placeholder": "110 00",
                "datatype": "string",
                "required": "true",
                "format": {
                    "type": "regex",
                    "data": "^\\d{3}\\s?\\d{2}$"
                },
                "errors": {
                    "format": "Nesprávný formát PSČ (11000 nebo 110 00)"  
                },
                "entity_map": "Cart->InvoiceAddress->Zipcode"
            },
            "country": {
                "title": "Stát",
                "type": "select",
                "class": "",
                "attributes": {
                    "options": [{
                            "title": "Česká republika",
                            "value": "CZ"
                        }]
                },
                "datatype": "string",
                "required": "true",
                "entity_map": "Cart->InvoiceAddress->Country"
            }
        }
    },
    "registration": {
        "title": "Zapamatovat údaje pro příště",
        "type": "conditional",
        "class": "full-size",
        "fields": {
            "active": {
                "render": "false",
                "required": "false",
                "datatype": "string"
            },
            "string01": {
                "title": "Heslo",
                "type": "password",
                "datatype": "string",
                "required": "condition",               
                "condition": {
                    "id": "password_active",
                    "value": "true"
                },
                "class": "col-sm-6 col-md-6",
                "autocomplete": "new-password"
            },
            "string02": {
                "title": "Potvrzení hesla",
                "type": "password",
                "datatype": "string",
                "required": "condition",               
                "condition": {
                    "id": "password_active",
                    "value": "true"
                },
                "class": "col-sm-6 col-md-6",
                "autocomplete": "new-password"
            }
        }
    },
    "company": {
        "title": "Nakupuji na firmu",
        "type": "conditional",
        "fields": {
            "active": {
                "render": "false",
                "required": "false",
                "datatype": "string"
            },
            "name": {
                "title": "Obchodní jméno",
                "type": "text",
                "class": "",
                "autocomplete": "org",
                "placeholder": "Vaše Firma s.r.o",
                "datatype": "string",
                "required": "false",               
                "condition": {
                    "id": "company_active",
                    "value": "true"
                },
                "entity_map": "Cart->CompanyName"
            },
            "ic": {
                "title": "IČ",
                "type": "text",
                "class": "",
                "autocomplete": "",
                "placeholder": "036 04 535",
                "datatype": "string",
                "required": "condition",               
                "condition": {
                    "id": "company_active",
                    "value": "true"
                },
                "entity_map": "Cart->CompanyId"
            },
            "dic": {
                "title": "DIČ",
                "type": "text",
                "class": "",
                "autocomplete": "",
                "placeholder": "CZ0360535",
                "datatype": "string",
                "required": "false",
                "entity_map": "Cart->CompanyTaxId"                           
            }
        }
    },
    "shipping": {
        "title": "Zaslat zboží na jinou adresu",
        "type": "conditional",
        "fields": {
            "active": {
                "render": "false",
                "required": "false",
                "datatype": "string"
            },
            "name": {
                "title": "Adresát",
                "type": "text",
                "class": "",
                "autocomplete": "shipping name",
                "placeholder": "Jana Nováková",
                "datatype": "string",
                "required": "condition",               
                "condition": {
                    "id": "shipping_active",
                    "value": "true"
                },
                "entity_map": "Cart->ShippingAddress->Name"
            },
            "street": {
                "title": "Ulice a č.p.",
                "type": "text",
                "class": "",
                "autocomplete": "billing street-address",
                "placeholder": "Ulice 526 / 3",
                "datatype": "string",
                "required": "condition",               
                "condition": {
                    "id": "shipping_active",
                    "value": "true"
                },
                "entity_map": "Cart->ShippingAddress->Street"
            },
            "city": {
                "title": "Obec",
                "type": "text",
                "class": "col-md-12",
                "autocomplete": "billing address-level2",
                "placeholder": "Praha",
                "datatype": "string",
                "required": "condition",               
                "condition": {
                    "id": "shipping_active",
                    "value": "true"
                },
                "entity_map": "Cart->ShippingAddress->City"
            },
            "zipcode": {
                "title": "PSČ",
                "type": "text",
                "class": "col-md-12",
                "autocomplete": "billing postal-code",
                "placeholder": "110 00",
                "required": "condition",               
                "condition": {
                    "id": "shipping_active",
                    "value": "true"
                },
                "datatype": "string",
                "format": {
                    "type": "regex",
                    "data": "^\\d{3}\\s?\\d{2}$"
                },
                "errors": {
                    "format": "Nesprávný formát PSČ (11000 nebo 110 00)"  
                },
                "entity_map": "Cart->ShippingAddress->Zipcode"
            },
            "country": {
                "title": "Stát",
                "type": "select",
                "class": "",
                "attributes": {
                    "options": [{
                            "title": "Česká republika",
                            "value": "CZ"
                        }]
                },
                "datatype": "string",
                "required": "condition",               
                "condition": {
                    "id": "shipping_active",
                    "value": "true"
                },
                "entity_map": "Cart->ShippingAddress->Country"
            }
        }
    }
}
